try_analysis_two
…
dt_nest <- dt_nest %>% 
  mutate(coh_conj_disj = map_dbl(data, calc_coh_conj_disj))

dt_nest <- dt_nest %>% 
  mutate(degree_of_coh = (coh_marg_conj + coh_marg_disj + coh_conj_disj) / 3) 

dt_nest[,12:16] %>% as.tibble() %>%
  print(n=40)

## Warning: `as.tibble()` is deprecated, use `as_tibble()` (but mind the new semantics).
## This warning is displayed once per session.

## # A tibble: 376 x 5
##    coherence_all coh_marg_conj coh_marg_disj coh_conj_disj degree_of_coh
##            <dbl>         <dbl>         <dbl>         <dbl>         <dbl>
##  1             0             1             1             0         0.667
##  2             0             1             0             0         0.333
##  3             0             0             0             1         0.333
##  4             0             1             1             0         0.667
##  5             0             1             1             0         0.667
##  6             0             0             1             0         0.333
##  7             0             0             1             0         0.333
##  8             0             0             0             0         0    
##  9             0             1             0             0         0.333
## 10             0             1             0             0         0.333
## 11             0             0             0             0         0    
## 12             0             1             1             0         0.667
## 13             0             0             0             0         0    
## 14             1             1             1             1         1    
## 15             0             0             0             1         0.333
## 16             1             1             1             1         1    
## 17             1             1             1             1         1    
## 18             0             0             0             1         0.333
## 19             0             0             0             0         0    
## 20             0             1             0             0         0.333
## 21             0             0             0             0         0    
## 22             0             0             0             1         0.333
## 23             0             0             0             1         0.333
## 24             0             0             0             0         0    
## 25             0             0             0             0         0    
## 26             0             1             0             0         0.333
## 27             0             1             1             0         0.667
## 28             0             0             0             0         0    
## 29             0             0             0             0         0    
## 30             0             0             0             0         0    
## 31             0             0             0             0         0    
## 32             0             0             1             0         0.333
## 33             0             0             0             0         0    
## 34             0             0             0             0         0    
## 35             0             1             1             0         0.667
## 36             1             1             1             1         1    
## 37             0             0             0             0         0    
## 38             0             1             0             0         0.333
## 39             0             0             0             0         0    
## 40             0             0             0             1         0.333
## #  with 336 more rows
…
Considering the order of the events

dt2$marginal_order <- ifelse (dt2$order == "marginal_disjunction_conjunction" | dt2$order ==  "marginal_conjunction_disjunction" , "first", 
                          ifelse(dt2$order == "disjunction_marginal_conjunction" | dt2$order ==  "conjunction_marginal_disjunction" | dt2$order == "disjunction_conjunction_marginal" | dt2$order ==  "conjunction_disjunction_marginal", "latter",
                                        "NA"))

dt2 %>% group_by(pid, marginal_order) %>% count()

## # A tibble: 180 x 3
## # Groups:   pid, marginal_order [180]
##    pid                      marginal_order     n
##    <fct>                    <chr>          <int>
##  1 55ad6781fdf99b649ca5a53f first              1
##  2 55ad6781fdf99b649ca5a53f latter             3
##  3 57e928630cb6700001dd8f8a first              1
##  4 57e928630cb6700001dd8f8a latter             2
##  5 5ae194995f327e0001fbb23e first              1
##  6 5ae194995f327e0001fbb23e latter             3
##  7 5b38a184dd6af000014ced7f first              1
##  8 5b38a184dd6af000014ced7f latter             2
##  9 5b9a16df2b00aa0001b2be06 latter             4
## 10 5ba4e5c0236c690001d2b3ca first              1
## #  with 170 more rows

dt2_exclude$marginal_order <- ifelse (dt2_exclude$order == "marginal_disjunction_conjunction" | dt2_exclude$order ==  "marginal_conjunction_disjunction" , "first", 
                          ifelse(dt2_exclude$order == "disjunction_marginal_conjunction" | dt2_exclude$order ==  "conjunction_marginal_disjunction" | dt2_exclude$order == "disjunction_conjunction_marginal" | dt2_exclude$order ==  "conjunction_disjunction_marginal", "latter",
                                        "NA"))

dt2_exclude %>% group_by(pid, marginal_order) %>% count()

## # A tibble: 162 x 3
## # Groups:   pid, marginal_order [162]
##    pid                      marginal_order     n
##    <fct>                    <chr>          <int>
##  1 55ad6781fdf99b649ca5a53f latter             3
##  2 57e928630cb6700001dd8f8a first              1
##  3 57e928630cb6700001dd8f8a latter             1
##  4 5ae194995f327e0001fbb23e first              1
##  5 5ae194995f327e0001fbb23e latter             3
##  6 5b38a184dd6af000014ced7f first              1
##  7 5b38a184dd6af000014ced7f latter             1
##  8 5b9a16df2b00aa0001b2be06 latter             4
##  9 5ba4e5c0236c690001d2b3ca first              1
## 10 5ba4e5c0236c690001d2b3ca latter             2
## #  with 152 more rows
…
